[
    {   "id": 0,
        "selected": false,
        "icon": "Hembra",
        "name": "Hembra"
    },
    {   "id": 1,
        "selected": false,
        "icon": "Macho",
        "name": "Macho"
    }
]