[
    {   "id": 0,
        "selected": false,
        "icon": "veterinary",
        "name": "Veterinario"
    },
    {   "id": 1,
        "selected": false,
        "icon": "pet-friendly",
        "name": "Pet Friendly"
    },
    {   "id": 2,
        "selected": false,
        "icon": "petgarten",
        "name": "Guarderia"
    }
]